Point/-221/-81/20.0/2
Point/-219/-86/20.0/2
Point/-217/-94/40.0/4
Point/-214/-102/30.0/3
Point/-213/-111/30.0/3
Point/-210/-120/10.0/1
Point/-211/-131/40.0/4
Point/-208/-140/50.0/5
Point/-208/-147/0.0/0
Point/-207/-158/70.0/7
Point/-204/-168/20.0/2
Point/-200/-177/30.0/3
Point/-197/-188/0.0/0
Point/-198/-202/50.0/5
Point/-194/-213/40.0/4
Point/-178/-211/30.0/3
Point/-174/-222/40.0/4
Point/-171/-230/10.0/1
Point/-145/-210/10.0/1
Point/-135/-212/50.0/5
Point/-129/-219/30.0/3
Point/-123/-229/40.0/4
Point/-117/-237/0.0/0
Point/-111/-247/0.0/0
Point/-112/-276/50.0/5
Point/-17/-117/70.0/7
Point/-12/-112/40.0/4
Point/-7/-109/20.0/2
Point/-3/-106/40.0/4
Point/2/-104/20.0/2
Point/6/-107/30.0/3
Point/10/-104/20.0/2
Point/13/-104/30.0/3
Point/17/-104/40.0/4
Point/21/-102/10.0/1
Point/25/-102/30.0/3
Point/28/-100/20.0/2
Point/30/-99/20.0/2
Point/34/-99/10.0/1
Point/38/-97/0.0/0
Point/43/-99/20.0/2
Point/47/-99/20.0/2
Point/53/-101/20.0/2
Point/59/-103/20.0/2
Point/211/-206/10.0/1
Point/209/-190/10.0/1
Point/210/-177/10.0/1
Point/225/-176/10.0/1
Point/234/-174/10.0/1
Point/267/-132/10.0/1
Point/268/-120/20.0/2
Point/267/-108/10.0/1
Point/240/-87/10.0/1
Point/226/-76/20.0/2
Point/234/-69/10.0/1
Point/246/-64/10.0/1
Point/243/-53/20.0/2
Point/240/-44/10.0/1
Point/218/-31/10.0/1
Point/214/-23/10.0/1
Point/213/-15/20.0/2
Point/212/-7/20.0/2
Point/210/0/50.0/5
Point/209/5/20.0/2
Point/210/12/40.0/4
Point/210/20/20.0/2
Point/209/27/10.0/1
Point/206/35/20.0/2
Point/211/44/30.0/3
Point/217/53/10.0/1
Point/217/62/20.0/2
Point/227/73/10.0/1
Point/218/76/20.0/2
Point/224/88/10.0/1
Point/202/88/40.0/4
Point/228/109/0.0/0
Point/235/123/30.0/3
Point/232/132/0.0/0
Point/230/143/20.0/2
Point/230/154/10.0/1
Point/230/167/40.0/4
Point/228/174/30.0/3
Point/226/186/20.0/2
Point/224/198/10.0/1
Point/98/182/10.0/1
Point/88/180/20.0/2
Point/81/180/10.0/1
Point/72/178/20.0/2
Point/65/179/30.0/3
Point/57/177/20.0/2
Point/52/176/20.0/2
Point/45/175/40.0/4
Point/38/173/20.0/2
Point/31/172/30.0/3
Point/25/171/20.0/2
Point/18/170/40.0/4
Point/12/170/20.0/2
Point/6/171/30.0/3
Point/0/170/30.0/3
Point/-4/171/30.0/3
Point/-10/166/20.0/2
Point/-16/166/30.0/3
Point/-22/169/20.0/2
Point/-28/167/30.0/3
Point/-34/167/30.0/3
Point/-40/166/30.0/3
Point/-47/165/30.0/3
Point/-53/165/30.0/3
Point/-58/165/30.0/3
Point/-64/164/20.0/2
Point/-71/165/20.0/2
Point/-78/164/0.0/0
Point/-86/165/40.0/4
Point/-94/164/30.0/3
Point/-100/162/40.0/4
Point/-107/159/30.0/3
Point/-116/160/20.0/2
Point/-120/158/20.0/2
Point/-120/146/0.0/0
Point/-118/134/0.0/0
Point/-117/122/0.0/0
Point/-119/116/30.0/3
Point/-116/105/10.0/1
Point/-114/96/30.0/3
Point/-120/94/50.0/5
Point/-127/92/30.0/3
Point/-131/91/20.0/2
Point/-138/88/20.0/2
Point/-150/88/10.0/1
Point/-160/86/20.0/2
Point/-172/85/30.0/3
Point/-188/85/20.0/2
Point/-202/82/30.0/3
Point/211/5/20.0/2
Point/212/8/10.0/1
Point/210/15/20.0/2
Point/208/23/30.0/3
Point/206/28/20.0/2
Point/207/30/20.0/2
Point/212/39/30.0/3
Point/221/49/10.0/1
Point/219/51/10.0/1
Point/218/57/10.0/1
Point/228/68/20.0/2
Point/231/72/10.0/1
Point/223/73/10.0/1
Point/220/78/20.0/2
Point/221/81/10.0/1
Point/206/81/20.0/2
Point/205/84/20.0/2
Point/202/91/20.0/2
Point/239/115/20.0/2
Point/237/117/20.0/2
Point/236/128/20.0/2
Point/234/131/30.0/3
Point/233/137/20.0/2
Point/234/150/20.0/2
Point/232/153/10.0/1
Point/233/161/10.0/1
Point/228/179/10.0/1
Point/226/191/0.0/0
Point/-2/-109/10.0/1
Point/10/-106/10.0/1
Point/21/-104/30.0/3
Point/26/-105/20.0/2
Point/30/-104/30.0/3
Point/35/-103/20.0/2
Point/40/-103/30.0/3
Point/45/-105/10.0/1
Point/50/-106/10.0/1
Point/54/-104/10.0/1
Point/59/-106/20.0/2
Point/64/-110/10.0/1
Point/71/-173/10.0/1
Point/82/-258/10.0/1
Point/214/-196/10.0/1
Point/215/-181/10.0/1
Point/226/-180/10.0/1
Point/232/-177/10.0/1
Point/243/-174/10.0/1
Point/256/-174/10.0/1
Point/270/-173/10.0/1
Point/274/-164/10.0/1
Point/271/-147/10.0/1
Point/270/-134/10.0/1
Point/223/-80/10.0/1
Point/230/-70/10.0/1
Point/255/-76/10.0/1
Point/242/-61/10.0/1
Point/216/-35/10.0/1
Point/213/-27/20.0/2
Point/211/-21/10.0/1
Point/210/-11/10.0/1
Point/211/35/10.0/1
Point/214/46/10.0/1
Point/212/52/20.0/2
Point/212/57/10.0/1
Point/216/70/10.0/1
Point/205/78/10.0/1
Point/200/82/0.0/0
Point/237/109/10.0/1
Point/235/141/10.0/1
Point/231/158/20.0/2
Point/228/183/20.0/2
Point/227/194/20.0/2
Point/224/204/20.0/2
Point/224/216/10.0/1
Point/222/228/10.0/1
Point/218/240/10.0/1
Point/216/254/10.0/1
Point/214/269/10.0/1
Point/90/174/10.0/1
Point/85/173/10.0/1
Point/79/173/0.0/0
Point/74/173/0.0/0
Point/69/173/0.0/0
Point/63/174/0.0/0
Point/58/173/0.0/0
Point/53/173/10.0/1
Point/49/175/10.0/1
Point/39/169/10.0/1
Point/33/170/20.0/2
Point/28/169/20.0/2
Point/23/168/10.0/1
Point/12/166/0.0/0
Point/6/167/0.0/0
Point/-11/169/10.0/1
Point/-37/165/20.0/2
Point/-66/162/20.0/2
Point/-75/161/10.0/1
Point/-104/157/20.0/2
Point/-125/153/40.0/4
Point/-122/141/0.0/0
Point/-121/134/40.0/4
Point/-120/125/40.0/4
Point/-119/108/30.0/3
Point/-119/100/40.0/4
Point/-128/88/20.0/2
Point/-154/88/20.0/2
Point/-174/84/20.0/2
Point/-196/83/20.0/2
Point/-227/78/20.0/2
Point/-229/68/30.0/3
Point/-230/57/30.0/3
Point/-231/47/30.0/3
Point/-229/36/30.0/3
Point/-229/25/40.0/4
Point/-81/172/20.0/2
Point/-85/169/20.0/2
Point/-90/163/30.0/3
Point/-97/159/30.0/3
Point/-105/152/20.0/2
Point/-108/151/0.0/0
Point/-127/148/10.0/1
Point/-127/145/20.0/2
Point/-121/120/20.0/2
Point/-121/112/10.0/1
Point/-122/104/10.0/1
Point/-117/90/0.0/0
Point/-122/86/0.0/0
Point/-135/85/20.0/2
Point/-148/81/10.0/1
Point/-150/79/0.0/0
Point/-186/81/0.0/0
Point/-186/78/0.0/0
Point/-219/78/10.0/1
Point/-229/72/20.0/2
Point/-230/61/20.0/2
Point/-229/51/40.0/4
Point/-230/43/40.0/4
Point/-231/40/30.0/3
Point/-230/33/30.0/3
Point/209/61/10.0/1
Point/208/68/10.0/1
Point/207/75/10.0/1
Point/240/103/10.0/1
Point/240/112/10.0/1
Point/238/120/10.0/1
Point/233/147/10.0/1
Point/232/167/10.0/1
Point/230/176/10.0/1
Point/222/213/10.0/1
Point/221/225/10.0/1
Point/219/236/10.0/1
Point/216/247/10.0/1
Point/212/258/10.0/1
Point/138/239/10.0/1
Point/92/184/10.0/1
Point/84/182/10.0/1
Point/76/179/20.0/2
Point/60/178/0.0/0
Point/-4/165/10.0/1
Point/-12/164/10.0/1
Point/-20/166/10.0/1
Point/-24/166/10.0/1
Point/-41/162/0.0/0
Point/-46/161/10.0/1
Point/-50/160/10.0/1
Point/-55/160/10.0/1
Point/-58/159/0.0/0
Point/-71/161/0.0/0
Point/-81/158/0.0/0
Point/-87/157/10.0/1
Point/-91/155/0.0/0
Point/-98/154/0.0/0
Point/-111/154/20.0/2
Point/-119/153/20.0/2
Point/-124/150/10.0/1
Point/-119/139/10.0/1
Point/-116/113/10.0/1
Point/-116/93/0.0/0
Point/-120/90/0.0/0
Point/-124/86/10.0/1
Point/-140/85/0.0/0
Point/-163/83/0.0/0
Point/-230/79/10.0/1
Point/-233/71/0.0/0
Point/-233/65/30.0/3
Point/-233/56/20.0/2
Point/-226/14/40.0/4
Point/-225/5/30.0/3
Point/-224/-2/30.0/3
Point/-224/-8/40.0/4
Point/-223/-17/40.0/4
Point/-221/-25/50.0/5
Point/-218/-34/50.0/5
Point/-217/-43/30.0/3
Point/-216/-51/40.0/4
Point/-215/-61/40.0/4
Point/-213/-70/50.0/5
Point/-211/-80/40.0/4
Point/-209/-86/30.0/3
Point/-208/-96/10.0/1
Point/-207/-107/20.0/2
Point/-206/-119/20.0/2
Point/-205/-131/20.0/2
Point/-202/-142/20.0/2
Point/-201/-156/30.0/3
Point/-149/-205/40.0/4
Point/-139/-209/80.0/8
Point/-21/-116/70.0/7
Point/45/-102/10.0/1
Point/-228/27/30.0/3
Point/-227/19/20.0/2
Point/-228/7/40.0/4
Point/-226/-1/20.0/2
Point/-226/-3/20.0/2
Point/-224/-12/40.0/4
Point/-223/-21/50.0/5
Point/-222/-29/30.0/3
Point/-220/-38/30.0/3
Point/-220/-41/30.0/3
Point/-217/-47/30.0/3
Point/-217/-56/30.0/3
Point/-217/-60/30.0/3
Point/-216/-69/40.0/4
Point/-210/-91/40.0/4
Point/-207/-100/10.0/1
Point/-206/-104/10.0/1
Point/-206/-112/30.0/3
Point/-205/-115/10.0/1
Point/-205/-123/30.0/3
Point/-204/-126/0.0/0
Point/-201/-133/10.0/1
Point/-199/-136/0.0/0
Point/-198/-144/0.0/0
Point/97/172/10.0/1
Point/95/177/10.0/1
Point/57/181/10.0/1
Point/36/175/10.0/1
Point/31/177/10.0/1
Point/23/176/10.0/1
Point/16/176/10.0/1
Point/7/173/10.0/1
Point/0/172/10.0/1
Point/-12/172/10.0/1
Point/-18/172/10.0/1
Point/-24/173/10.0/1
Point/-28/171/10.0/1
Point/-67/164/10.0/1
Point/-81/165/20.0/2
Point/-116/154/0.0/0
Point/-124/129/10.0/1
Point/-122/116/10.0/1
Point/-117/95/10.0/1
Point/-123/92/0.0/0
Point/-140/87/0.0/0
Point/-146/87/0.0/0
Point/-165/86/0.0/0
Point/-167/85/10.0/1
Point/-183/83/20.0/2
Point/-189/81/20.0/2
Point/-213/80/20.0/2
Point/-233/81/10.0/1
Point/-226/32/10.0/1
Point/-223/11/10.0/1
Point/-219/-28/20.0/2
Point/-216/-39/10.0/1
Point/-211/-76/0.0/0
Point/-204/-142/30.0/3
Point/-201/-164/50.0/5
Point/-197/-173/0.0/0
Point/-192/-182/0.0/0
Point/-192/-194/0.0/0
Point/-189/-207/10.0/1
Point/-181/-212/10.0/1
Point/-170/-211/0.0/0
Point/-166/-226/20.0/2
Point/-156/-225/10.0/1
Point/-132/-209/40.0/4
Point/-125/-218/0.0/0
Point/-120/-224/0.0/0
Point/-114/-242/0.0/0
Point/-10/-172/10.0/1
Point/-13/-142/50.0/5
Point/-10/-106/20.0/2
Point/-5/-105/10.0/1
Point/4/-103/10.0/1
Point/46/-89/10.0/1
Point/218/-59/10.0/1
Point/217/-47/10.0/1
Point/215/-40/10.0/1
Point/210/-18/10.0/1
Point/209/-7/10.0/1
Point/-220/-130/20.0/2
Point/-215/-133/20.0/2
Point/-214/-136/10.0/1
Point/-205/-145/20.0/2
Point/-204/-148/40.0/4
Point/-202/-159/10.0/1
Point/-202/-173/50.0/5
Point/-196/-179/10.0/1
Point/-195/-184/20.0/2
Point/-197/-198/50.0/5
Point/-192/-209/0.0/0
Point/-190/-212/30.0/3
Point/-177/-206/70.0/7
Point/-171/-223/20.0/2
Point/-164/-223/30.0/3
Point/-161/-224/20.0/2
Point/-144/-205/60.0/6
Point/-129/-213/0.0/0
Point/-126/-213/10.0/1
Point/-120/-228/0.0/0
Point/-121/-268/20.0/2
Point/-118/-273/0.0/0
Point/-122/96/20.0/2
Point/-127/95/20.0/2
Point/-132/95/10.0/1
Point/-137/93/10.0/1
Point/-142/92/20.0/2
Point/-147/91/20.0/2
Point/-152/91/20.0/2
Point/-159/92/20.0/2
Point/-164/90/20.0/2
Point/-167/89/20.0/2
Point/-178/85/10.0/1
Point/-204/82/10.0/1
Point/-242/94/10.0/1
Point/-241/83/20.0/2
Point/-238/73/10.0/1
Point/-238/64/10.0/1
Point/-234/47/10.0/1
Point/-234/40/10.0/1
Point/-233/32/20.0/2
Point/-232/26/20.0/2
Point/-231/21/0.0/0
Point/-229/15/10.0/1
Point/-220/-54/30.0/3
Point/-216/-66/40.0/4
Point/-214/-75/20.0/2
Point/-214/-79/20.0/2
Point/-212/-84/30.0/3
Point/-211/-99/10.0/1
Point/-209/-103/10.0/1
Point/-204/-135/10.0/1
Point/-198/-166/0.0/0
Point/-195/-207/20.0/2
Point/-173/-210/30.0/3
Point/-157/-219/10.0/1
Point/-138/-202/10.0/1
Point/-120/-262/20.0/2
Point/-114/-281/20.0/2
Point/-108/-282/40.0/4
Point/-99/-282/60.0/6
Point/-90/-287/30.0/3
Point/-81/-291/20.0/2
Point/-72/-296/20.0/2
Point/-61/-305/10.0/1
Point/-48/-328/30.0/3
Point/-37/-326/10.0/1
Point/-28/-321/40.0/4
Point/-21/-318/30.0/3
Point/-12/-314/60.0/6
Point/-1/-311/60.0/6
Point/8/-309/70.0/7
Point/18/-306/40.0/4
Point/28/-303/10.0/1
Point/39/-301/10.0/1
Point/50/-300/30.0/3
Point/-12/-147/10.0/1
Point/-9/-136/20.0/2
Point/-4/-135/20.0/2
Point/-16/-110/30.0/3
Point/-14/-107/30.0/3
Point/-9/-103/10.0/1
Point/-5/-101/20.0/2
Point/-1/-99/0.0/0
Point/5/-99/20.0/2
Point/14/-99/10.0/1
Point/21/-98/0.0/0
Point/40/-96/10.0/1
Point/105/-118/10.0/1
Point/-210/-156/40.0/4
Point/-200/-169/20.0/2
Point/-201/-179/50.0/5
Point/-198/-182/10.0/1
Point/-199/-191/40.0/4
Point/-197/-193/20.0/2
Point/-195/-202/20.0/2
Point/-182/-202/30.0/3
Point/-153/-208/10.0/1
Point/-136/-205/20.0/2
Point/-131/-211/20.0/2
Point/-127/-222/30.0/3
Point/-125/-225/20.0/2
Point/-121/-245/10.0/1
Point/-117/-281/10.0/1
Point/-104/97/10.0/1
Point/-108/96/10.0/1
Point/-135/97/10.0/1
Point/-173/89/10.0/1
Point/-180/89/10.0/1
Point/-187/88/10.0/1
Point/-194/88/10.0/1
Point/-202/86/10.0/1
Point/-208/84/10.0/1
Point/-214/84/10.0/1
Point/-234/103/10.0/1
Point/-242/99/10.0/1
Point/-237/67/10.0/1
Point/-236/54/10.0/1
Point/-237/45/10.0/1
Point/-232/17/10.0/1
Point/-229/1/10.0/1
Point/-227/-7/10.0/1
Point/-224/-26/10.0/1
Point/-223/-31/0.0/0
Point/-223/-36/20.0/2
Point/-223/-39/20.0/2
Point/-222/-45/20.0/2
Point/-221/-49/20.0/2
Point/-215/-89/30.0/3
Point/-213/-92/20.0/2
Point/-211/-106/10.0/1
Point/-209/-116/10.0/1
Point/-210/-124/10.0/1
Point/-208/-127/10.0/1
Point/-207/-135/0.0/0
Point/-204/-160/0.0/0
Point/-199/-184/0.0/0
Point/-169/-219/10.0/1
Point/-166/-220/10.0/1
Point/-160/-219/10.0/1
Point/-149/-201/30.0/3
Point/-144/-200/10.0/1
Point/-140/-201/30.0/3
Point/-129/-215/10.0/1
Point/-123/-236/10.0/1
Point/-105/-279/30.0/3
Point/-54/-319/0.0/0
Point/-43/-328/30.0/3
Point/-35/-323/30.0/3
Point/-27/-318/30.0/3
Point/-19/-314/50.0/5
Point/23/-305/30.0/3
Point/33/-303/40.0/4
Point/43/-300/0.0/0
Point/55/-300/0.0/0
Point/69/-302/20.0/2
Point/83/-302/0.0/0
Point/-15/-147/20.0/2
Point/0/-137/10.0/1
Point/3/-135/10.0/1
Point/-12/-124/30.0/3
Point/-18/-110/20.0/2
Point/-114/-288/20.0/2
Point/-109/-288/20.0/2
Point/-101/-287/20.0/2
Point/-94/-287/30.0/3
Point/-91/-289/20.0/2
Point/-86/-295/40.0/4
Point/-81/-295/20.0/2
Point/-73/-308/30.0/3
Point/-64/-313/20.0/2
Point/-59/-320/0.0/0
Point/-50/-332/30.0/3
Point/-40/-325/30.0/3
Point/-32/-319/50.0/5
Point/-24/-317/30.0/3
Point/-15/-315/60.0/6
Point/-6/-311/60.0/6
Point/15/-308/40.0/4
Point/38/-303/40.0/4
Point/41/-302/20.0/2
Point/62/-302/40.0/4
Point/73/-300/20.0/2
Point/77/-299/10.0/1
Point/88/-301/10.0/1
Point/-220/2/10.0/1
Point/-216/-8/10.0/1
Point/-218/-15/10.0/1
Point/-219/-63/10.0/1
Point/-220/-69/20.0/2
Point/-218/-75/10.0/1
Point/-218/-81/20.0/2
Point/-217/-97/0.0/0
Point/-217/-101/10.0/1
Point/-216/-105/20.0/2
Point/-215/-110/10.0/1
Point/-213/-115/10.0/1
Point/-212/-119/10.0/1
Point/-213/-124/10.0/1
Point/-210/-137/10.0/1
Point/-210/-141/10.0/1
Point/-212/-144/20.0/2
Point/-211/-148/20.0/2
Point/-208/-152/20.0/2
Point/-207/-160/20.0/2
Point/-206/-165/10.0/1
Point/-201/-184/20.0/2
Point/-200/-188/20.0/2
Point/-183/-207/20.0/2
Point/-180/-220/10.0/1
Point/-177/-222/10.0/1
Point/-166/-216/10.0/1
Point/-139/-205/30.0/3
Point/-132/-215/20.0/2
Point/-127/-229/10.0/1
Point/-126/-239/30.0/3
Point/-125/-247/10.0/1
Point/-124/-255/10.0/1
Point/-124/-274/10.0/1
Point/-119/-278/20.0/2
Point/-109/-278/20.0/2
Point/-78/-299/50.0/5
Point/-72/-300/10.0/1
Point/-53/-329/30.0/3
Point/4/-309/30.0/3
Point/21/-308/20.0/2
Point/28/-306/40.0/4
Point/45/-302/40.0/4
Point/52/-303/20.0/2
Point/90/-305/0.0/0
Point/-9/-153/30.0/3
Point/-18/-145/30.0/3
Point/-17/-137/20.0/2
Point/11/-129/10.0/1
Point/3/-124/10.0/1
Point/-14/-121/30.0/3
Point/-18/-104/10.0/1
Point/-93/-298/20.0/2
Point/-90/-299/20.0/2
Point/-84/-299/20.0/2
Point/-69/-306/30.0/3
Point/-57/-334/30.0/3
Point/-43/-324/20.0/2
Point/-38/-322/30.0/3
Point/-34/-320/20.0/2
Point/-9/-314/20.0/2
Point/24/-309/10.0/1
Point/55/-302/20.0/2
Point/-211/-32/10.0/1
Point/-212/-58/10.0/1
Point/-215/-113/10.0/1
Point/-216/-119/10.0/1
Point/-214/-126/10.0/1
Point/-213/-138/10.0/1
Point/-209/-163/10.0/1
Point/-207/-168/10.0/1
Point/-200/-195/10.0/1
Point/-200/-204/10.0/1
Point/-135/-215/20.0/2
Point/-133/-220/10.0/1
Point/-133/-222/10.0/1
Point/-132/-225/10.0/1
Point/-131/-227/20.0/2
Point/-130/-232/10.0/1
Point/-129/-235/10.0/1
Point/-128/-246/10.0/1
Point/-127/-250/10.0/1
Point/-127/-255/10.0/1
Point/-126/-259/10.0/1
Point/-126/-263/10.0/1
Point/-127/-271/10.0/1
Point/-176/-370/10.0/1
Point/-122/-278/10.0/1
Point/-103/-282/20.0/2
Point/-75/-300/10.0/1
Point/-67/-309/10.0/1
Point/-62/-318/10.0/1
Point/-46/-323/10.0/1
Point/77/-303/20.0/2
Point/95/-307/30.0/3
Point/145/-332/10.0/1
Point/162/-331/10.0/1
Point/175/-331/10.0/1
Point/205/-194/10.0/1
Point/202/-183/10.0/1
Point/206/-173/10.0/1
Point/13/-161/10.0/1
Point/5/-160/10.0/1
Point/0/-159/10.0/1
Point/-4/-157/10.0/1
Point/-6/-155/20.0/2
Point/-12/-150/10.0/1
Point/-16/-150/20.0/2
Point/-18/-142/10.0/1
Point/-1/-121/10.0/1
Point/-5/-122/10.0/1
Point/-20/-109/10.0/1
Point/56/-314/20.0/2
Point/59/-311/10.0/1
Point/62/-310/10.0/1
Point/64/-307/20.0/2
Point/73/-305/20.0/2
Point/90/-309/10.0/1
Point/150/-338/10.0/1
Point/153/-336/10.0/1
Point/163/-335/10.0/1
Point/167/-333/10.0/1
Point/215/-200/10.0/1
Point/206/-196/10.0/1
Point/205/-189/10.0/1
Point/-113/-267/10.0/1
Point/-102/-289/10.0/1
Point/-54/-314/10.0/1
Point/-30/-322/10.0/1
Point/-6/-316/10.0/1
Point/19/-314/10.0/1
Point/53/-319/10.0/1
Point/-240/-325/10.0/1
Point/-191/-436/10.0/1
Point/-36/-271/10.0/1
Point/-22/-261/10.0/1
Point/-10/-257/10.0/1
Point/43/-329/10.0/1

