Point/0/-82/100.0/10
Point/3/-82/0.0/0
Point/7/-80/0.0/0
Point/11/-79/0.0/0
Point/15/-78/0.0/0
Point/19/-77/0.0/0
Point/22/-75/0.0/0
Point/25/-73/0.0/0
Point/29/-73/0.0/0
Point/34/-73/10.0/1
Point/38/-72/100.0/10
Point/41/-70/0.0/0
Point/45/-69/0.0/0
Point/50/-69/0.0/0
Point/55/-68/10.0/1
Point/59/-67/0.0/0
Point/65/-66/0.0/0
Point/72/-66/0.0/0
Point/78/-65/0.0/0
Point/85/-64/0.0/0
Point/91/-62/0.0/0
Point/103/-63/0.0/0
Point/111/-61/0.0/0
Point/108/-53/0.0/0
Point/103/-44/0.0/0
Point/108/-40/0.0/0
Point/105/-33/0.0/0
Point/100/-26/0.0/0
Point/98/-21/0.0/0
Point/97/-16/0.0/0
Point/98/-11/0.0/0
Point/100/-6/0.0/0
Point/100/-1/0.0/0
Point/101/2/0.0/0
Point/99/7/0.0/0
Point/98/12/0.0/0
Point/97/17/0.0/0
Point/96/21/0.0/0
Point/105/29/0.0/0
Point/106/35/0.0/0
Point/105/40/0.0/0
Point/106/47/0.0/0
Point/107/54/0.0/0
Point/102/58/0.0/0
Point/90/56/0.0/0
Point/82/57/0.0/0
Point/74/58/0.0/0
Point/68/58/0.0/0
Point/64/61/10.0/1
Point/58/61/0.0/0
Point/52/59/0.0/0
Point/48/60/0.0/0
Point/48/68/0.0/0
Point/45/69/0.0/0
Point/39/68/0.0/0
Point/36/69/0.0/0
Point/32/71/0.0/0
Point/28/71/0.0/0
Point/24/72/40.0/4
Point/21/72/0.0/0
Point/41/173/0.0/0
Point/33/182/0.0/0
Point/25/184/0.0/0
Point/16/194/0.0/0
Point/17/439/0.0/0
Point/4/-81/100.0/10
Point/8/-80/100.0/10
Point/12/-79/100.0/10
Point/15/-76/100.0/10
Point/19/-75/100.0/10
Point/23/-74/100.0/10
Point/26/-73/100.0/10
Point/30/-73/100.0/10
Point/34/-72/100.0/10
Point/38/-71/100.0/10
Point/42/-70/100.0/10
Point/47/-70/100.0/10
Point/52/-71/10.0/1
Point/56/-69/30.0/3
Point/61/-67/90.0/9
Point/67/-67/0.0/0
Point/76/-69/100.0/10
Point/83/-68/100.0/10
Point/91/-68/50.0/5
Point/101/-67/70.0/7
Point/108/-65/100.0/10
Point/112/-60/100.0/10
Point/107/-51/100.0/10
Point/107/-45/60.0/6
Point/107/-39/100.0/10
Point/104/-32/100.0/10
Point/98/-25/100.0/10
Point/98/-20/100.0/10
Point/98/-15/100.0/10
Point/98/-10/100.0/10
Point/100/-5/100.0/10
Point/103/-1/0.0/0
Point/98/3/40.0/4
Point/99/8/100.0/10
Point/98/13/100.0/10
Point/97/18/100.0/10
Point/105/24/60.0/6
Point/105/30/100.0/10
Point/106/36/60.0/6
Point/105/41/100.0/10
Point/105/48/0.0/0
Point/106/54/70.0/7
Point/99/57/60.0/6
Point/89/57/50.0/5
Point/81/58/10.0/1
Point/73/58/100.0/10
Point/67/59/100.0/10
Point/63/61/100.0/10
Point/57/60/100.0/10
Point/51/60/100.0/10
Point/46/60/100.0/10
Point/50/71/50.0/5
Point/43/68/100.0/10
Point/38/68/100.0/10
Point/35/69/100.0/10
Point/31/70/100.0/10
Point/27/70/100.0/10
Point/23/71/100.0/10
Point/20/73/80.0/8
Point/40/179/40.0/4
Point/32/182/100.0/10
Point/23/185/100.0/10
Point/33/428/0.0/0
Point/12/439/10.0/1
Point/0/-83/30.0/3
Point/4/-82/60.0/6
Point/15/-77/20.0/2
Point/30/-72/100.0/10
Point/47/-71/50.0/5
Point/52/-70/100.0/10
Point/56/-68/100.0/10
Point/62/-68/100.0/10
Point/69/-69/100.0/10
Point/92/-68/60.0/6
Point/102/-68/20.0/2
Point/109/-66/60.0/6
Point/111/-59/20.0/2
Point/99/-25/100.0/10
Point/97/-15/80.0/8
Point/0/0/10.0/1
Point/104/24/100.0/10
Point/105/36/100.0/10
Point/105/42/90.0/9
Point/106/48/100.0/10
Point/107/55/100.0/10
Point/80/57/100.0/10
Point/50/59/40.0/4
Point/50/72/100.0/10
Point/34/69/100.0/10
Point/27/69/60.0/6
Point/23/72/50.0/5
Point/20/74/100.0/10
Point/40/180/100.0/10
Point/32/181/60.0/6
Point/33/430/60.0/6
Point/8/-81/40.0/4
Point/39/-72/60.0/6
Point/42/-71/50.0/5
Point/51/-69/60.0/6
Point/107/-64/20.0/2
Point/106/-50/10.0/1
Point/106/-44/100.0/10
Point/99/-10/100.0/10
Point/102/0/90.0/9
Point/100/3/90.0/9
Point/99/13/70.0/7
Point/98/18/100.0/10
Point/103/24/40.0/4
Point/98/57/50.0/5
Point/73/57/100.0/10
Point/27/71/0.0/0
Point/11/380/0.0/0
Point/19/-74/100.0/10
Point/22/-73/100.0/10
Point/26/-72/40.0/4
Point/77/-70/20.0/2
Point/101/-68/100.0/10
Point/111/-60/100.0/10
Point/105/-38/40.0/4
Point/103/-32/70.0/7
Point/99/-5/100.0/10
Point/1107/-10/0.0/0
Point/99/3/100.0/10
Point/100/8/40.0/4
Point/107/48/100.0/10
Point/88/57/100.0/10
Point/42/67/100.0/10
Point/39/69/30.0/3
Point/35/70/30.0/3
Point/31/71/100.0/10
Point/11/384/0.0/0
Point/15/-75/30.0/3
Point/43/-71/30.0/3
Point/57/-69/60.0/6
Point/84/-69/30.0/3
Point/108/-45/90.0/9
Point/108/-39/100.0/10
Point/102/-31/20.0/2
Point/970/-9/0.0/0
Point/106/30/50.0/5
Point/98/56/100.0/10
Point/68/59/70.0/7
Point/56/60/100.0/10
Point/42/68/70.0/7
Point/33/431/30.0/3
Point/12/442/0.0/0
Point/12/-78/100.0/10
Point/98/8/40.0/4
Point/104/35/30.0/3
Point/63/60/50.0/5
Point/51/59/70.0/7
Point/23/184/50.0/5
Point/11/402/0.0/0
Point/8/-79/30.0/3
Point/97/-25/10.0/1
Point/101/3/40.0/4
Point/105/35/40.0/4
Point/106/55/10.0/1
Point/67/58/100.0/10
Point/11/381/0.0/0
Point/62/-69/10.0/1
Point/77/-69/20.0/2
Point/92/-69/60.0/6
Point/109/-65/30.0/3
Point/99/-20/0.0/0
Point/791/-7/0.0/0
Point/104/30/20.0/2
Point/59/34/0.0/0
Point/46/59/40.0/4
Point/12/441/0.0/0
Point/48/-71/30.0/3
Point/100/-67/60.0/6
Point/107/-44/20.0/2
Point/104/-38/10.0/1
Point/100/-31/20.0/2
Point/96/-19/0.0/0
Point/101/0/60.0/6
Point/29/376/0.0/0
Point/10/357/20.0/2
Point/453/-4/0.0/0
Point/97/56/0.0/0
Point/79/57/10.0/1
Point/57/61/0.0/0
Point/29/378/20.0/2
Point/10/355/0.0/0
Point/61/-68/60.0/6
Point/97/-10/0.0/0
Point/101/-5/20.0/2
Point/72/57/50.0/5
Point/29/379/0.0/0
Point/103/-37/0.0/0
Point/109/-1/0.0/0
Point/96/18/0.0/0
Point/105/25/20.0/2
Point/29/377/0.0/0
Point/68/-68/100.0/10
Point/105/-50/10.0/1
Point/103/-31/10.0/1
Point/116/-1/0.0/0
Point/97/13/10.0/1
Point/41/180/10.0/1
Point/32/183/10.0/1
Point/10/358/30.0/3
Point/22/-74/20.0/2
Point/55/-67/10.0/1
Point/60/-66/0.0/0
Point/82/-68/10.0/1
Point/90/-67/70.0/7
Point/97/-20/30.0/3
Point/980/-9/0.0/0
Point/23/186/0.0/0
Point/9/337/10.0/1
Point/0/-81/30.0/3
Point/34/-71/10.0/1
Point/47/60/10.0/1
Point/31/402/0.0/0
Point/27/-74/10.0/1
Point/102/-69/0.0/0
Point/109/-59/0.0/0
Point/106/-51/10.0/1
Point/104/-37/0.0/0
Point/100/0/0.0/0
Point/30/394/0.0/0
Point/9/335/10.0/1
Point/983/-9/0.0/0
Point/62/60/10.0/1
Point/30/398/0.0/0
Point/9/338/10.0/1
Point/103/-49/0.0/0
Point/31/398/0.0/0
Point/88/0/0.0/0
Point/51/72/0.0/0
Point/31/404/0.0/0
Point/51/-68/10.0/1
Point/104/-50/10.0/1
Point/106/42/0.0/0
Point/29/374/10.0/1
Point/4/-80/20.0/2
Point/106/-64/40.0/4
Point/107/-38/0.0/0
Point/34/68/0.0/0
Point/29/373/20.0/2
Point/10/359/10.0/1
Point/35/-73/0.0/0
Point/46/-69/0.0/0
Point/29/375/0.0/0
Point/10/360/10.0/1
Point/99/-15/0.0/0
Point/88/56/30.0/3
Point/12/-77/0.0/0
Point/75/-68/0.0/0
Point/82/-67/30.0/3
Point/89/-66/10.0/1
Point/98/-65/0.0/0
Point/104/-63/10.0/1
Point/101/-31/0.0/0
Point/38/69/10.0/1
Point/39/-73/0.0/0
Point/88/-65/0.0/0
Point/96/-64/0.0/0
Point/228/-2/0.0/0
Point/26/69/20.0/2
Point/26/343/0.0/0
Point/9/336/0.0/0
Point/26/-74/10.0/1
Point/31/-74/0.0/0
Point/108/-51/0.0/0
Point/26/344/0.0/0
Point/48/-72/0.0/0
Point/89/-67/0.0/0
Point/99/-67/0.0/0
Point/105/-63/0.0/0
Point/104/-49/0.0/0
Point/9/333/20.0/2
Point/16/-77/0.0/0
Point/105/-44/0.0/0
Point/108/49/0.0/0
Point/23/-75/0.0/0
Point/91/-67/0.0/0
Point/227/-2/0.0/0
Point/10/347/0.0/0
Point/41/181/0.0/0
Point/32/423/0.0/0
Point/10/370/0.0/0

