Point/86/0/100.0/0
Point/87/2/100.0/0
Point/86/5/100.0/0
Point/86/7/100.0/0
Point/86/10/100.0/0
Point/85/12/100.0/0
Point/84/14/100.0/0
Point/84/17/100.0/0
Point/83/19/100.0/0
Point/83/22/100.0/0
Point/83/24/100.0/0
Point/82/27/100.0/0
Point/83/30/100.0/0
Point/83/33/100.0/0
Point/82/35/100.0/0
Point/83/38/100.0/0
Point/83/42/100.0/0
Point/83/44/100.0/0
Point/83/48/100.0/0
Point/84/51/100.0/0
Point/83/54/100.0/0
Point/82/58/100.0/0
Point/85/63/100.0/0
Point/85/67/100.0/0
Point/87/73/100.0/0
Point/88/79/100.0/0
Point/88/83/100.0/0
Point/89/89/100.0/0
Point/88/94/100.0/0
Point/83/94/100.0/0
Point/80/95/100.0/0
Point/76/96/100.0/0
Point/71/96/100.0/0
Point/65/93/100.0/0
Point/60/92/100.0/0
Point/56/92/100.0/0
Point/53/92/100.0/0
Point/50/92/100.0/0
Point/46/93/100.0/0
Point/43/94/100.0/0
Point/40/94/100.0/0
Point/38/95/100.0/0
Point/35/96/100.0/0
Point/32/97/100.0/0
Point/29/97/100.0/0
Point/26/98/100.0/0
Point/22/95/100.0/0
Point/19/96/100.0/0
Point/17/99/100.0/0
Point/14/101/100.0/0
Point/11/101/100.0/0
Point/8/101/100.0/0
Point/5/101/100.0/0
Point/2/102/100.0/0

